pcs7400.vcd
$date
  Tue Oct 20 16:41:58 2015
$end
$version
  GHDL v0
$end
$timescale
  1 fs
$end
$var reg 2 ! entradas[1:2] $end
$var reg 4 " saidas[1:4] $end
$scope module uut $end
$var reg 1 # e1 $end
$var reg 1 $ e2 $end
$var reg 1 % e4 $end
$var reg 1 & e5 $end
$var reg 1 ' e9 $end
$var reg 1 ( e10 $end
$var reg 1 ) e12 $end
$var reg 1 * e13 $end
$var reg 1 + s3 $end
$var reg 1 , s6 $end
$var reg 1 - s8 $end
$var reg 1 . s11 $end
$upscope $end
$enddefinitions $end
#0
b00 !
bUUUU "
0#
0$
0%
0&
0'
0(
0)
0*
U+
U,
U-
U.
#10000000
b1111 "
1+
1,
1-
1.
#15000000
b01 !
1$
1&
1(
1*
#25000000
1+
1,
1-
1.
#30000000
b10 !
1#
0$
1%
0&
1'
0(
1)
0*
#40000000
1+
1,
1-
1.
#45000000
b11 !
1$
1&
1(
1*
#55000000
b0000 "
0+
0,
0-
0.
